{
  "id_card_verification": {
    "docInstructions_title": "xxxxx",
    "docInstructions_desc": "xxxxx",
    "docInstructions_button": "xxxxx",
    "docCapture_title": "xxxxx",
    "docCapture_desc": "xxxxx",
    "docCapture_frontSubText": "xxxxx",
    "docCapture_backSubText": "xxxxx",
    "docCapture_cameraAccessTitle": "xxxxx",
    "docCapture_cameraAccessDesc": "xxxxx",
    "docCapture_cameraAccessButton": "xxxxx",
    "docReview_title": "xxxxx",
    "docReview_desc": "xxxxx",
    "docReview_usePhotoButton": "xxxxx",
    "docReview_retakeButton": "xxxxx",
    "docLoader_title": "xxxxx",
    "docLoader_desc": "xxxxx",
    "docRetake_title": "xxxxx",
    "docRetake_button": "xxxxx",
    "docPicker_title": "xxxxx?",
    "docPicker_desc": "xxxxx",
    "E101": "ID Card not detected",
    "E102": "Wrong side of document detected",
    "E103": "Glare detected on image",
    "E104": "Image captured is blurred",
    "E105": "Document is not completely visible",
    "E106": "Face on ID is not clear",
    "E107": "Black and white document detected",
    "E108": "Capture original ID Card",
    "E109": "Corner of ID card is missing"
  },
  "selfie_verification": {
    "faceInstructions_title": "xxxxx",
    "faceInstructions_desc": "xxxxx",
    "faceInstructions_button": "xxxxx",
    "faceCapture_title": "xxxxx",
    "faceCapture_faceFound": "xxxxx",
    "faceCapture_faceNotFound": "xxxxx",
    "faceCapture_moveCloser": "xxxxx",
    "faceCapture_moveAway": "xxxxx",
    "faceCapture_lookStraight": "xxxxx",
    "faceCapture_multipleFaces": "xxxxx",
    "faceLoader_title": "xxxxx",
    "faceRetake_title": "xxxxx",
    "faceRetake_button": "xxxxx",
    "E101": "Selfie captured is blurry",
    "E102": "Multiple faces detected",
    "E103": "Selfie captured is not clear",
    "E104": "Eyes closed in selfie",
    "E105": "Remove your face mask",
    "E106": "Remove your spectacles",
    "E107": "Look straight while capturing photo"
  },
  "countries": {
    "countries_title" : "xxxxx?",
    "countries_desc": "xxxxx",
    "countries_button" : "xxxxx",
    "countries_searchText": "xxxxx"
  }
}
