{
  "properties": {
    "sdkVersions": {
      "android": {
        "maximum": "1.2.0",
        "minimum": "1.0.0"
      },
      "ios": {
        "maximum": "1.2.0",
        "minimum": "1.0.0"
      },
      "websdk": {
        "maximum": "1.2.0",
        "minimum": "1.0.0"
      }
    },
    "textConfigSource": {
    "en":"default",
    "vn":"default",
    "hn":"default"
  },
  "uiConfigSource" : "custom"
  },
  
  "modules": [
    {
      "type": "countries",
      "subType": "countries",
      "id": "module_1",
      "nextStep": "module_2",
      "properties": {
        "countriesSupported": [
          "nga",
          "ind"
        ]
      }
    },
    {
      "type": "document",
      "subType": "id_card_verification",
      "id": "module_2",
      "nextStep": "condition_1",
      "properties": {
        "allowUpload": true,
        "countryId": "{module_1.countryId}",
        "url": "{module_1.baseUrl}/v1/readId",
        "documentsSupported": {
          "ind": [
            "pan",
            "id",
            "voterid"
          ],
          "nga": [
            "passport"
          ]
        }
      },
      "variables": [
        {
          "name": "age",
          "path": "front.response.result.details[0].fieldsExtracted.age.value"
        },
        {
          "name": "front_action",
          "path": "front.response.result.summary.action"
        },
        {
          "name": "front_status",
          "path": "front.response.status"
        },
        {
          "name": "front_statusCode",
          "path": "front.response.statusCode"
        }
      ]
    },
    {
      "type": "face",
      "subType": "selfie_verification",
      "id": "module_3",
      "nextStep": "condition_2",
      "properties": {
        "url": "{module_1.baseUrl}/v1/checkLiveness"
      },
      "variables": [
        {
          "name": "action",
          "path": "response.result.summary.action"
        },
        {
          "name": "liveFace",
          "path": "response.result.details.liveFace.value"
        },
        {
          "name": "status",
          "path": "response.status"
        },
        {
          "name": "statusCode",
          "path": "response.statusCode"
        }
      ]
    },
    {
      "type": "api",
      "subType": "selfie_id_match_api",
      "id": "module_4",
      "nextStep": "condition_3",
      "properties": {
        "url": "{module_1.baseUrl}/v1/matchFace",
        "apiType": "multipart_post",
        "requestParameters": [
          {
            "name": "image1",
            "value": "module_2.front_imagePath",
            "type": "image"
          },
          {
            "name": "image2",
            "value": "module_3.croppedImagePath",
            "type": "image"
          },
          {
            "name": "type",
            "value": "id",
            "type": "string"
          }
        ]
      },
      "variables": [
        {
          "name": "match",
          "path": "response.result.details.match.value"
        },
        {
          "name": "statusCode",
          "path": "response.statusCode"
        }
      ]
    }
  ],
  "conditions": {
    "condition_1": {
      "if_false": "decline",
      "if_true": "module_3",
      "rule": "(module_2.front_statusCode == 200) || (module_2.front_statusCode == 422)"
    },
    "condition_2": {
      "if_false": "decline",
      "if_true": "module_4",
      "rule": "module_3.statusCode == 200 && module_3.liveFace == 'yes'"
    },
    "condition_3": {
      "if_false": "decline",
      "if_true": "approve",
      "rule": "module_4.match == 'yes'"
    }
  }
}
